ALL CALVES
…
    Author

             WAK 

Data Steps

Pull in data

Creating new variables

[1] "6/16/2025" "6/17/2025" "6/17/2025" "6/17/2025" "6/18/2025" "6/18/2025"

[1] "6/23/2025" "6/23/2025" "6/23/2025" "6/23/2025" "6/23/2025" "6/23/2025"

# A tibble: 86 × 2
   LOAD                 n
   <fct>            <int>
 1 2025-06-23_3.5_B   244
 2 2025-06-23_3_B     282
 3 2025-06-23_3_D     266
 4 2025-06-23_4.5_B   186
 5 2025-06-24_3.5_B   242
 6 2025-06-24_4.5_D   185
 7 2025-06-25_3.5_D   242
 8 2025-06-25_4.5_B   425
 9 2025-06-30_3.5_B   244
10 2025-06-30_3_B     281
# ℹ 76 more rows
…
# A tibble: 9 × 6
# Groups:   SD [3]
     SD DBxS  Count total  mean    sd
  <dbl> <chr> <int> <dbl> <dbl> <dbl>
1   3   BF        2   563  282. 0.707
2   3   BM        5  1405  281  1    
3   3   DF        5  1378  276. 6.73 
4   3.5 BF        4   970  242. 1    
5   3.5 BM        6  1446  241  4.52 
6   3.5 DF        6  1443  240. 6.32 
7   4.5 BF        6  1110  185  0.632
8   4.5 BM        5   928  186. 0.894
9   4.5 DF        6  1081  180. 5.67 

# A tibble: 45 × 3
   LOAD              trvH trvHsd
   <chr>            <dbl>  <dbl>
 1 2025-06-23_3.5_B  22.7  0.467
 2 2025-06-23_3_B    22.6  0.518
 3 2025-06-23_3_D    25    0    
 4 2025-06-23_4.5_B  22.4  0.512
 5 2025-06-24_3.5_B  20.6  0.493
 6 2025-06-24_4.5_D  24.6  0.484
 7 2025-06-25_3.5_D  28.3  0.456
 8 2025-06-30_3.5_B  22.0  0.426
 9 2025-06-30_3_B    22.2  0.653
10 2025-06-30_4.5_B  22.4  0.763
# ℹ 35 more rows
…
