IceCube SD 2025
…
# A tibble: 8 × 2
  Section Count
  <chr>   <int>
1 A          15
2 B          53
3 C          43
4 D           6
5 E          21
6 F          49
7 G          60
8 H          16

# A tibble: 29 × 3
# Groups:   TRT [3]
   TRT   FOO   Count
   <chr> <chr> <int>
 1 DF3.0 CAD       8
 2 DF3.0 D45       9
 3 DF3.0 DUB       6
 4 DF3.0 LOD      10
 5 DF3.0 MSD      32
 6 DF3.0 NOD       9
 7 DF3.0 RVD      16
 8 DF3.0 SWD       4
 9 DF3.0 TCM       2
10 DF3.0 WAD      10
# ℹ 19 more rows
…
